[
  {
    "name": "Apple Watch -M2",
    "avatar": "https://www.pngmart.com/files/6/Watch-PNG-File.png",
    "price": "100$",
    "price1": "130$",
    "id": "1"
  },
  {
    "name": "White Tshirt",
    "avatar": "https://www.pngmart.com/files/1/Plain-White-T-Shirt-PNG.png",
    "price": "10$",
    "price1": "15$",
    "id": "2"
  },
  {
    "name": "Nike Shoes",
    "avatar": "https://www.pngmart.com/files/1/Nike-Shoes-Transparent-Background.png",
    "price": "50$",
    "price1": "55$",
    "id": "3"
  },
  {
    "name": "Ear Headphone",
    "avatar": "https://www.pngmart.com/files/6/Sennheiser-Headphone-PNG-Transparent-Picture.png",
    "price": "25$",
    "price1": "28$",
    "id": "4"
  },
  {
    "name": "MI Phone",
    "avatar": "https://www.pngmart.com/files/22/Mi-PNG-Picture.png",
    "price": "340$",
    "price1": "350$",
    "id": "5"
  },
  {
    "name": "HP Laptop",
    "avatar": "https://www.pngmart.com/files/16/Portable-Laptop-Top-View-Transparent-Background.png",
    "price": "900$",
    "price1": "930$",
    "id": "6"
  },
  {
    "name": "Samsung TV",
    "avatar": "https://cloudflare-ipfs.com/ipfs/Qmd3W5DuhgHirLHGVixi6V76LhCkZUz6pnFt5AJBiyvHye/avatar/894.jpg",
    "price": "763.00",
    "price1": "605.00",
    "id": "7"
  },
  {
    "name": "Washing Machine",
    "avatar": "https://cloudflare-ipfs.com/ipfs/Qmd3W5DuhgHirLHGVixi6V76LhCkZUz6pnFt5AJBiyvHye/avatar/1184.jpg",
    "price": "995.00",
    "price1": "255.00",
    "id": "8"
  },
  {
    "name": "Macbook",
    "avatar": "https://cloudflare-ipfs.com/ipfs/Qmd3W5DuhgHirLHGVixi6V76LhCkZUz6pnFt5AJBiyvHye/avatar/559.jpg",
    "price": "157.00",
    "price1": "34.00",
    "id": "9"
  },
  {
    "name": "Fridge",
    "avatar": "https://cloudflare-ipfs.com/ipfs/Qmd3W5DuhgHirLHGVixi6V76LhCkZUz6pnFt5AJBiyvHye/avatar/1038.jpg",
    "price": "193.00",
    "price1": "339.00",
    "id": "10"
  },
  {
    "name": "DSLR Camera",
    "avatar": "https://cloudflare-ipfs.com/ipfs/Qmd3W5DuhgHirLHGVixi6V76LhCkZUz6pnFt5AJBiyvHye/avatar/881.jpg",
    "price": "714.00",
    "price1": "215.00",
    "id": "11"
  },
  {
    "name": "Printer",
    "avatar": "https://cloudflare-ipfs.com/ipfs/Qmd3W5DuhgHirLHGVixi6V76LhCkZUz6pnFt5AJBiyvHye/avatar/373.jpg",
    "price": "117.00",
    "price1": "827.00",
    "id": "12"
  },
  {
    "name": "A.C",
    "avatar": "https://cloudflare-ipfs.com/ipfs/Qmd3W5DuhgHirLHGVixi6V76LhCkZUz6pnFt5AJBiyvHye/avatar/970.jpg",
    "price": "129.00",
    "price1": "866.00",
    "id": "13"
  },
  {
    "name": "Hard Disk",
    "avatar": "https://cloudflare-ipfs.com/ipfs/Qmd3W5DuhgHirLHGVixi6V76LhCkZUz6pnFt5AJBiyvHye/avatar/777.jpg",
    "price": "984.00",
    "price1": "87.00",
    "id": "14"
  },
  {
    "name": "Pen Drive",
    "avatar": "https://cloudflare-ipfs.com/ipfs/Qmd3W5DuhgHirLHGVixi6V76LhCkZUz6pnFt5AJBiyvHye/avatar/131.jpg",
    "price": "919.00",
    "price1": "936.00",
    "id": "15"
  }
]